/* XPM */
static char * hide_pressed_xpm[] = {
"20 24 61 1",
" 	c None",
".	c #522100",
"+	c #F1AC69",
"@	c #F08937",
"#	c #EC8837",
"$	c #691500",
"%	c #E88838",
"&	c #661700",
"*	c #B15912",
"=	c #F3A552",
"-	c #E48539",
";	c #651700",
">	c #F3A654",
",	c #E38438",
"'	c #F2A352",
")	c #E18439",
"!	c #641700",
"~	c #F29F52",
"{	c #DC843B",
"]	c #621800",
"^	c #DA843C",
"/	c #611900",
"(	c #F29C53",
"_	c #D6823E",
":	c #601A00",
"<	c #EE9A52",
"[	c #D38240",
"}	c #5F1C00",
"|	c #E99752",
"1	c #C77F41",
"2	c #591D00",
"3	c #DF9657",
"4	c #C47C3D",
"5	c #7D3C03",
"6	c #DC9250",
"7	c #C47B3B",
"8	c #5B1D00",
"9	c #7D3B02",
"0	c #F7CE88",
"a	c #DA8E4E",
"b	c #C47839",
"c	c #5C1C00",
"d	c #7F3B02",
"e	c #F7CD85",
"f	c #D78A49",
"g	c #C47737",
"h	c #5D1A00",
"i	c #803901",
"j	c #D58544",
"k	c #C47634",
"l	c #D28240",
"m	c #C37432",
"n	c #CE7F3B",
"o	c #C17330",
"p	c #C1722E",
"q	c #CD7C37",
"r	c #5F1A00",
"s	c #C16F2B",
"t	c #CE7B37",
"u	c #BB6F30",
"v	c #684422",
"....................",
"++++++++++++++++++++",
"@@@@@@@@@@@@@@@@@@@@",
"###$$$$$$$$$$$$$$###",
"%%&**************&=%",
"-;****************;>",
",;****************;'",
")!****************!~",
"{]****************]~",
"^/****************/(",
"_:****************:<",
"[}****************}|",
"12****************23",
"42***5555555555***26",
"78***9000000009***8a",
"bc***deeeeeeeed***cf",
"gh***iiiiiiiiii***hj",
"kh****************hl",
"mh****************hn",
"ooh**************hno",
"ppqrrrrrrrrrrrrrrqpp",
"sssttttttttttttttsss",
"uuuuuuuuuuuuuuuuuuuu",
"vvvvvvvvvvvvvvvvvvvv"};
