/* XPM */
static char * title_1_active_xpm[] = {
"5 24 25 1",
" 	c None",
".	c #522100",
"+	c #F1AC69",
"@	c #F08937",
"#	c #EC8837",
"$	c #E88838",
"%	c #E48539",
"&	c #E38438",
"*	c #E18439",
"=	c #DC843B",
"-	c #DA843C",
";	c #D6823E",
">	c #D38240",
",	c #C77F41",
"'	c #C47C3D",
")	c #C47B3B",
"!	c #C47839",
"~	c #C47737",
"{	c #C47634",
"]	c #C37432",
"^	c #C3732F",
"/	c #C1722E",
"(	c #C16F2B",
"_	c #BB6F30",
":	c #684422",
".....",
"+++++",
"@@@@@",
"#####",
"$$$$$",
"%%%%%",
"&&&&&",
"*****",
"=====",
"-----",
";;;;;",
">>>>>",
",,,,,",
"'''''",
")))))",
"!!!!!",
"~~~~~",
"{{{{{",
"]]]]]",
"^^^^^",
"/////",
"(((((",
"_____",
":::::"};
